R Glossary for RDSVS MScâ€™s
…
The select() verb lets us choose or drop columns in a dataframe and change their order.

To make a new dataset using just the model, year and city fuel consumption columns from the mpg dataset (from the tidyverse packages) we can do this (weâ€™ll assume youâ€™ve loded the tidyverse already with library(tidyverse))â€¦

new_data <- mpg %>% 
  select(model, year, cty)

Check it workedâ€¦

Is this too verbose???

new_data

# A tibble: 234 x 3
   model       year   cty
   <chr>      <int> <int>
 1 a4          1999    18
 2 a4          1999    21
 3 a4          2008    20
 4 a4          2008    21
 5 a4          1999    16
 6 a4          1999    18
 7 a4          2008    18
 8 a4 quattro  1999    18
 9 a4 quattro  1999    16
10 a4 quattro  2008    20
# ... with 224 more rows
…
